<?xml version="1.0" encoding="utf-8"?>
<!-- Generator: Adobe Illustrator 19.2.1, SVG Export Plug-In . SVG Version: 6.00 Build 0)  -->
<svg version="1.1" id="Layer_1" xmlns="http://www.w3.org/2000/svg" xmlns:xlink="http://www.w3.org/1999/xlink" x="0px" y="0px"
	 viewBox="0 0 100 100" style="enable-background:new 0 0 100 100;" xml:space="preserve">
<style type="text/css">
	.st0{fill:none;}
	.st1{fill:#FFFFFF;}
</style>
<g>
	<path class="st0" d="M0,0h100v100H0V0z"/>
	<path class="st1" d="M41.7,68.8l25-18.8l-25-18.8V68.8z M50,8.3C27,8.3,8.3,27,8.3,50S27,91.7,50,91.7S91.7,73,91.7,50
		S73,8.3,50,8.3z M50,90c-22,0-40-17.9-40-40s18-40,40-40s40,18,40,40S72.1,90,50,90z"/>
</g>
</svg>
